Rarefaction
…
We obtain the rarefied data, remove AMR genes with 0 values and save it:

set.seed(200889)
ariba_rar<-rrarefy(t(ariba_counts[ ,-1]), sample = raremax)
ariba_rar<-as_tibble(t(ariba_rar))%>%mutate(ref_name=ariba_counts$ref_name)%>%
  select(ref_name, everything())%>%
  rowwise()%>%
  filter(sum(c_across(-ref_name))>0)%>%ungroup()

save(ariba_rar, file="output/rarefied_ariba.RDA")

ariba_counts%>%rowwise()%>%
  filter(sum(c_across(-ref_name))>0)%>%ungroup()

# A tibble: 308 × 156
   ref_name    Sample_001 Sample_002 Sample_003 Sample_004 Sample_005 Sample_006
   <chr>            <dbl>      <dbl>      <dbl>      <dbl>      <dbl>      <dbl>
 1 APH_3___II…         48         34         82         28        696         70
 2 CblA_1.300…         82        542        152          0          0          0
 3 CfxA2.3003…       1088       1642       1322          0          0          0
 4 CfxA6.3003…        170          0       3640       1806       1514       1844
 5 Clostridio…       2664       2562       3478       2780       3930       2604
 6 ErmB.30003…        176         30        128        250        240        438
 7 ErmF.30004…        698         86       3308       1830       2044       1302
 8 ErmG.30005…         46        480         26        124        120        432
 9 Mef_En2_.3…        292        384        780         60          0         26
10 Moraxella_…        888       2116       1174        462          0          0
# … with 298 more rows, and 149 more variables: Sample_009 <dbl>,
#   Sample_010 <dbl>, Sample_011 <dbl>, Sample_012 <dbl>, Sample_013 <dbl>,
#   Sample_014 <dbl>, Sample_015 <dbl>, Sample_016 <dbl>, Sample_017 <dbl>,
#   Sample_018 <dbl>, Sample_019 <dbl>, Sample_020 <dbl>, Sample_021 <dbl>,
#   Sample_022 <dbl>, Sample_023 <dbl>, Sample_024 <dbl>, Sample_025 <dbl>,
#   Sample_026 <dbl>, Sample_027 <dbl>, Sample_028 <dbl>, Sample_029 <dbl>,
#   Sample_030 <dbl>, Sample_031 <dbl>, Sample_032 <dbl>, Sample_033 <dbl>, …
…
