04_01_counts
…
Calculate total AMR gene RPKM sum per sample

total_rpkm<-ariba_rpkm %>%
  select(-ref_name)%>%
   summarise(across(everything(), ~ sum (.)))%>%
  t()%>%
  as_tibble(rownames = "SampleID")%>%
  rename(rpkm_t=2)%>%
  inner_join(metadata, by="SampleID")

total_rpkm%>%
  select(SampleID, rpkm_t, HIV_Status, Profile,Profile2, RiskGroup2, Cluster, CD4_hl)%>%
  pivot_longer(c(-SampleID, -rpkm_t), names_to="Clin_var", values_to = "value")

# A tibble: 930 × 4
   SampleID   rpkm_t Clin_var   value      
   <chr>       <dbl> <chr>      <chr>      
 1 Sample_001   781. HIV_Status positive   
 2 Sample_001   781. Profile    concordant 
 3 Sample_001   781. Profile2   concordant 
 4 Sample_001   781. RiskGroup2 hts        
 5 Sample_001   781. Cluster    Bacteroides
 6 Sample_001   781. CD4_hl     high       
 7 Sample_002   857. HIV_Status positive   
 8 Sample_002   857. Profile    concordant 
 9 Sample_002   857. Profile2   concordant 
10 Sample_002   857. RiskGroup2 hts        
# … with 920 more rows
# ℹ Use `print(n = ...)` to see more rows
…
